Create Transport Scenarios for use in the A/B Street Software • abstr
…
library(abstr)
ab_scenario_list = ab_scenario(
 leeds_houses,
 leeds_buildings,
 leeds_desire_lines,
 leeds_zones,
 output_format = "json_list"
)
ab_scenario_list
#> $scenario_name
#> [1] "base"
#> 
#> $people
#> # A tibble: 37 x 2
#>    origin$Position$longitude $$latitude trips           
#>                        <dbl>      <dbl> <list>          
#>  1                     -1.53       53.8 <tibble [1 × 3]>
#>  2                     -1.53       53.8 <tibble [1 × 3]>
#>  3                     -1.53       53.8 <tibble [1 × 3]>
#>  4                     -1.53       53.8 <tibble [1 × 3]>
#>  5                     -1.53       53.8 <tibble [1 × 3]>
#>  6                     -1.53       53.8 <tibble [1 × 3]>
#>  7                     -1.53       53.8 <tibble [1 × 3]>
#>  8                     -1.53       53.8 <tibble [1 × 3]>
#>  9                     -1.53       53.8 <tibble [1 × 3]>
#> 10                     -1.53       53.8 <tibble [1 × 3]>
#> # … with 27 more rows
…
